simulation/qsim/Trabajo_practico_03.msim.vcd
$comment
	File created using the following command:
		vcd file Trabajo_practico_03.msim.vcd -direction
$end
$date
	Tue Sep 24 13:52:04 2024
$end
$version
	ModelSim Version 10.1d
$end
$timescale
	1ps
$end
$scope module Maquina_de_estado_TP2_vlg_vec_tst $end
$var reg 1 ! CLK $end
$var reg 1 " X $end
$var wire 1 # Q0 $end
$var wire 1 $ Q1 $end
$var wire 1 % sampler $end
$scope module i1 $end
$var wire 1 & gnd $end
$var wire 1 ' vcc $end
$var wire 1 ( unknown $end
$var tri1 1 ) devclrn $end
$var tri1 1 * devpor $end
$var tri1 1 + devoe $end
$var wire 1 , Q1~output_o $end
$var wire 1 - Q0~output_o $end
$var wire 1 . CLK~input_o $end
$var wire 1 / CLK~inputclkctrl_outclk $end
$var wire 1 0 X~input_o $end
$var wire 1 1 inst17~0_combout $end
$var wire 1 2 inst2~q $end
$var wire 1 3 inst16~0_combout $end
$var wire 1 4 inst~q $end
$upscope $end
$upscope $end
$enddefinitions $end
#0
$dumpvars
0!
0"
0#
0$
x%
0&
1'
x(
1)
1*
1+
0,
0-
0.
0/
00
01
02
13
04
$end
#50000
1!
1.
1/
0%
14
03
11
1,
1$
#100000
0!
0.
0/
1%
#150000
1!
1.
1/
0%
04
12
01
0,
1-
0$
1#
#200000
0!
0.
0/
1%
#250000
1!
1.
1/
0%
02
13
0-
0#
#300000
0!
0.
0/
1%
#350000
1!
1.
1/
0%
14
03
11
1,
1$
#400000
0!
0.
0/
1%
#450000
1!
1.
1/
0%
04
12
01
0,
1-
0$
1#
#500000
0!
0.
0/
1%
#550000
1!
1.
1/
0%
02
13
0-
0#
#600000
0!
0.
0/
1%
#650000
1!
1.
1/
0%
14
03
11
1,
1$
#700000
0!
0.
0/
1%
#750000
1!
1.
1/
0%
04
12
01
0,
1-
0$
1#
#800000
0!
0.
0/
1%
#850000
1!
1.
1/
0%
02
13
0-
0#
#900000
0!
0.
0/
1%
#950000
1!
1.
1/
0%
14
03
11
1,
1$
