simulation/qsim/Trabajo_practico_03.msim.vcd
$comment
	File created using the following command:
		vcd file Trabajo_practico_03.msim.vcd -direction
$end
$date
	Sat Sep 21 11:34:01 2024
$end
$version
	ModelSim Version 10.1d
$end
$timescale
	1ps
$end
$scope module Paralele_serie_16bits_vlg_vec_tst $end
$var reg 1 ! ClK $end
$var reg 16 " Dato [15:0] $end
$var reg 1 # SHL $end
$var wire 1 $ Salida $end
$var wire 1 % sampler $end
$scope module i1 $end
$var wire 1 & gnd $end
$var wire 1 ' vcc $end
$var wire 1 ( unknown $end
$var tri1 1 ) devclrn $end
$var tri1 1 * devpor $end
$var tri1 1 + devoe $end
$var wire 1 , Salida~output_o $end
$var wire 1 - ClK~input_o $end
$var wire 1 . ClK~inputclkctrl_outclk $end
$var wire 1 / SHL~input_o $end
$var wire 1 0 Dato[0]~input_o $end
$var wire 1 1 Dato[2]~input_o $end
$var wire 1 2 Dato[3]~input_o $end
$var wire 1 3 Dato[5]~input_o $end
$var wire 1 4 Dato[6]~input_o $end
$var wire 1 5 Dato[7]~input_o $end
$var wire 1 6 Dato[9]~input_o $end
$var wire 1 7 Dato[10]~input_o $end
$var wire 1 8 Dato[11]~input_o $end
$var wire 1 9 Dato[13]~input_o $end
$var wire 1 : Dato[14]~input_o $end
$var wire 1 ; Dato[15]~input_o $end
$var wire 1 < inst_1|inst3~combout $end
$var wire 1 = inst_1|inst~q $end
$var wire 1 > inst3|inst4~0_combout $end
$var wire 1 ? inst3|inst~q $end
$var wire 1 @ inst4|inst4~0_combout $end
$var wire 1 A inst4|inst~q $end
$var wire 1 B Dato[12]~input_o $end
$var wire 1 C inst5|inst4~0_combout $end
$var wire 1 D inst5|inst~q $end
$var wire 1 E inst9|inst4~0_combout $end
$var wire 1 F inst9|inst~q $end
$var wire 1 G inst8|inst4~0_combout $end
$var wire 1 H inst8|inst~q $end
$var wire 1 I inst7|inst4~0_combout $end
$var wire 1 J inst7|inst~q $end
$var wire 1 K Dato[8]~input_o $end
$var wire 1 L inst6|inst4~0_combout $end
$var wire 1 M inst6|inst~q $end
$var wire 1 N inst10|inst4~0_combout $end
$var wire 1 O inst10|inst~q $end
$var wire 1 P inst11|inst4~0_combout $end
$var wire 1 Q inst11|inst~q $end
$var wire 1 R inst12|inst4~0_combout $end
$var wire 1 S inst12|inst~q $end
$var wire 1 T Dato[4]~input_o $end
$var wire 1 U inst13|inst4~0_combout $end
$var wire 1 V inst13|inst~q $end
$var wire 1 W inst14|inst4~0_combout $end
$var wire 1 X inst14|inst~q $end
$var wire 1 Y inst15|inst4~0_combout $end
$var wire 1 Z inst15|inst~q $end
$var wire 1 [ Dato[1]~input_o $end
$var wire 1 \ inst16|inst4~0_combout $end
$var wire 1 ] inst16|inst~q $end
$var wire 1 ^ inst17|inst4~0_combout $end
$var wire 1 _ inst17|inst~q $end
$upscope $end
$upscope $end
$enddefinitions $end
#0
$dumpvars
0!
b1010101010101010 "
0#
0$
x%
0&
1'
x(
1)
1*
1+
0,
0-
0.
0/
00
01
12
13
04
15
16
07
18
19
0:
1;
1<
0=
0>
0?
1@
0A
0B
0C
0D
1E
0F
0G
0H
1I
0J
0K
0L
0M
1N
0O
0P
0Q
1R
0S
0T
0U
0V
1W
0X
0Y
0Z
1[
1\
0]
0^
0_
$end
#10000
1!
1-
1.
0%
1]
1X
1S
1O
1J
1F
1A
1=
#20000
0!
0-
0.
1%
#30000
1!
1-
1.
0%
#40000
0!
0-
0.
1%
#50000
1!
1-
1.
0%
#60000
0!
0-
0.
1%
#70000
1!
1-
1.
0%
#80000
0!
0-
0.
1%
#90000
1!
1-
1.
0%
#100000
0!
0-
0.
1%
#110000
1!
1-
1.
0%
#120000
0!
0-
0.
1%
#130000
1!
1-
1.
0%
#140000
0!
0-
0.
1%
#150000
1!
1-
1.
0%
#160000
0!
0-
0.
1%
#170000
1!
1-
1.
0%
#180000
0!
0-
0.
1%
#190000
1!
1-
1.
0%
#200000
0!
0-
0.
1%
#210000
1!
1-
1.
0%
#220000
0!
0-
0.
1%
#230000
1!
1-
1.
0%
#240000
0!
0-
0.
1%
#250000
1!
1-
1.
0%
#260000
0!
0-
0.
1%
#270000
1!
1-
1.
0%
#280000
0!
0-
0.
1%
#290000
1!
1-
1.
0%
#300000
0!
0-
0.
1%
#310000
1!
1-
1.
0%
#320000
0!
0-
0.
1%
#330000
1!
1-
1.
0%
#340000
0!
0-
0.
1%
#350000
1#
1!
1/
1-
1.
0%
1^
0\
1Y
0W
1U
0R
1P
0N
1L
0I
1G
0E
1C
0@
1>
0<
#360000
0!
0-
0.
1%
#370000
1!
1-
1.
0%
0]
1Z
0X
1V
0S
1Q
0O
1M
0J
1H
0F
1D
0A
1?
0=
1_
0^
1\
0Y
1W
0U
1R
0P
1N
0L
1I
0G
1E
0C
1@
0>
1,
1$
#380000
0!
0-
0.
1%
#390000
1!
1-
1.
0%
1]
0Z
1X
0V
1S
0Q
1O
0M
1J
0H
1F
0D
1A
0?
0_
1^
0\
1Y
0W
1U
0R
1P
0N
1L
0I
1G
0E
1C
0@
0,
0$
#400000
0!
0-
0.
1%
#410000
1!
1-
1.
0%
0]
1Z
0X
1V
0S
1Q
0O
1M
0J
1H
0F
1D
0A
1_
0^
1\
0Y
1W
0U
1R
0P
1N
0L
1I
0G
1E
0C
1,
1$
#420000
0!
0-
0.
1%
#430000
1!
1-
1.
0%
1]
0Z
1X
0V
1S
0Q
1O
0M
1J
0H
1F
0D
0_
1^
0\
1Y
0W
1U
0R
1P
0N
1L
0I
1G
0E
0,
0$
#440000
0!
0-
0.
1%
#450000
1!
1-
1.
0%
0]
1Z
0X
1V
0S
1Q
0O
1M
0J
1H
0F
1_
0^
1\
0Y
1W
0U
1R
0P
1N
0L
1I
0G
1,
1$
#460000
0!
0-
0.
1%
#470000
1!
1-
1.
0%
1]
0Z
1X
0V
1S
0Q
1O
0M
1J
0H
0_
1^
0\
1Y
0W
1U
0R
1P
0N
1L
0I
0,
0$
#480000
0!
0-
0.
1%
#490000
1!
1-
1.
0%
0]
1Z
0X
1V
0S
1Q
0O
1M
0J
1_
0^
1\
0Y
1W
0U
1R
0P
1N
0L
1,
1$
#500000
0!
0-
0.
1%
#510000
1!
1-
1.
0%
1]
0Z
1X
0V
1S
0Q
1O
0M
0_
1^
0\
1Y
0W
1U
0R
1P
0N
0,
0$
#520000
0!
0-
0.
1%
#530000
1!
1-
1.
0%
0]
1Z
0X
1V
0S
1Q
0O
1_
0^
1\
0Y
1W
0U
1R
0P
1,
1$
#540000
0!
0-
0.
1%
#550000
1!
1-
1.
0%
1]
0Z
1X
0V
1S
0Q
0_
1^
0\
1Y
0W
1U
0R
0,
0$
#560000
0!
0-
0.
1%
#570000
1!
1-
1.
0%
0]
1Z
0X
1V
0S
1_
0^
1\
0Y
1W
0U
1,
1$
#580000
0!
0-
0.
1%
#590000
1!
1-
1.
0%
1]
0Z
1X
0V
0_
1^
0\
1Y
0W
0,
0$
#600000
0!
0-
0.
1%
#610000
1!
1-
1.
0%
0]
1Z
0X
1_
0^
1\
0Y
1,
1$
#620000
0!
0-
0.
1%
#630000
1!
1-
1.
0%
1]
0Z
0_
1^
0\
0,
0$
#640000
0!
0-
0.
1%
#650000
1!
1-
1.
0%
0]
1_
0^
1,
1$
#660000
0!
0-
0.
1%
#670000
1!
1-
1.
0%
0_
0,
0$
#680000
0!
0-
0.
1%
#690000
1!
1-
1.
0%
#700000
0#
0!
0/
0-
0.
1%
1\
1W
1R
1N
1I
1E
1@
1<
#710000
1!
1-
1.
0%
1]
1X
1S
1O
1J
1F
1A
1=
#720000
0!
0-
0.
1%
#730000
1!
1-
1.
0%
#740000
0!
0-
0.
1%
#750000
1!
1-
1.
0%
#760000
0!
0-
0.
1%
#770000
1!
1-
1.
0%
#780000
0!
0-
0.
1%
#790000
1!
1-
1.
0%
#800000
0!
0-
0.
1%
#810000
1!
1-
1.
0%
#820000
0!
0-
0.
1%
#830000
1!
1-
1.
0%
#840000
0!
0-
0.
1%
#850000
1!
1-
1.
0%
#860000
0!
0-
0.
1%
#870000
1!
1-
1.
0%
#880000
0!
0-
0.
1%
#890000
1!
1-
1.
0%
#900000
0!
0-
0.
1%
#910000
1!
1-
1.
0%
#920000
0!
0-
0.
1%
#930000
1!
1-
1.
0%
#940000
0!
0-
0.
1%
#950000
1!
1-
1.
0%
#960000
0!
0-
0.
1%
#970000
1!
1-
1.
0%
#980000
0!
0-
0.
1%
#990000
1!
1-
1.
0%
