Queartus_workspace_TP3/simulation/qsim/Trabajo_practico_03.msim.vcd
$comment
	File created using the following command:
		vcd file Trabajo_practico_03.msim.vcd -direction
$end
$date
	Sat Nov 16 20:34:58 2024
$end
$version
	ModelSim Version 10.1d
$end
$timescale
	1ps
$end
$scope module Maquina_de_estados_V2_TP3_vlg_vec_tst $end
$var reg 1 ! clock $end
$var wire 1 " END $end
$var wire 1 # Q0 $end
$var wire 1 $ Q1 $end
$var wire 1 % Q2 $end
$var wire 1 & R1 $end
$var wire 1 ' R2 $end
$var wire 1 ( R3 $end
$var wire 1 ) START $end
$var wire 1 * sampler $end
$scope module i1 $end
$var wire 1 + gnd $end
$var wire 1 , vcc $end
$var wire 1 - unknown $end
$var tri1 1 . devclrn $end
$var tri1 1 / devpor $end
$var tri1 1 0 devoe $end
$var wire 1 1 START~output_o $end
$var wire 1 2 Q2~output_o $end
$var wire 1 3 END~output_o $end
$var wire 1 4 Q1~output_o $end
$var wire 1 5 Q0~output_o $end
$var wire 1 6 R1~output_o $end
$var wire 1 7 R2~output_o $end
$var wire 1 8 R3~output_o $end
$var wire 1 9 inst14~4_combout $end
$var wire 1 : inst2~q $end
$var wire 1 ; inst14~3_combout $end
$var wire 1 < inst~q $end
$var wire 1 = clock~input_o $end
$var wire 1 > inst37~combout $end
$var wire 1 ? inst37~clkctrl_outclk $end
$var wire 1 @ inst5~0_combout $end
$var wire 1 A inst1~q $end
$var wire 1 B inst20~0_combout $end
$var wire 1 C inst14~0_combout $end
$var wire 1 D inst14~1_combout $end
$var wire 1 E inst14~2_combout $end
$upscope $end
$upscope $end
$enddefinitions $end
#0
$dumpvars
0!
0"
0#
0$
0%
0&
0'
0(
0)
x*
0+
1,
x-
1.
1/
10
01
02
03
04
05
06
07
08
19
0:
0;
0<
0=
0>
0?
0@
0A
0B
0C
0D
0E
$end
#50000
1!
1=
0*
1>
1?
1:
1@
09
15
1#
1D
1B
16
11
1&
1)
#100000
0!
0=
1*
0>
0?
#150000
1!
1=
0*
1>
1?
1A
0:
19
14
05
1$
0#
1E
0D
17
06
1'
0&
#200000
0!
0=
1*
0>
0?
#250000
1!
1=
0*
1>
1?
1:
0@
09
15
1#
0E
1;
07
18
0'
1(
#300000
0!
0=
1*
0>
0?
#350000
1!
1=
0*
1>
1?
0A
1<
0:
0>
04
12
05
0?
0$
1%
0#
1C
0B
0;
13
01
08
1"
0)
0(
#400000
0!
0=
1*
#450000
1!
1=
0*
#500000
0!
0=
1*
#550000
1!
1=
0*
#600000
0!
0=
1*
#650000
1!
1=
0*
#700000
0!
0=
1*
#750000
1!
1=
0*
#800000
0!
0=
1*
#850000
1!
1=
0*
#900000
0!
0=
1*
#950000
1!
1=
0*
